Geospatial plotting of ANI connections between strains from Jakarta, Indonesia
…
ani_pairs_ST38

# A tibble: 54 × 7
   sample1  sample2    ANI  lon1  lat1  lon2  lat2
   <chr>    <chr>    <dbl> <dbl> <dbl> <dbl> <dbl>
 1 X211_S1  X222_S11  99.9    NA    NA   NA  NA   
 2 X211_S1  A1_S1    100.     NA    NA  107. -6.20
 3 X211_S1  E113     100.     NA    NA  107. -6.11
 4 X211_S1  E117     100.     NA    NA  107. -6.37
 5 X211_S1  E79       99.7    NA    NA  107. -6.28
 6 X211_S1  H200     100.     NA    NA  107. -6.20
 7 X222_S11 X211_S1   99.9    NA    NA   NA  NA   
 8 X222_S11 A1_S1    100.     NA    NA  107. -6.20
 9 X222_S11 E113     100.     NA    NA  107. -6.11
10 X222_S11 E117     100.     NA    NA  107. -6.37
# ℹ 44 more rows
…
